<!-- wp:image {"id":10998} -->
<figure class="wp-block-image"><img src="/app/uploads/2016/08/brandenburgertor_sn.jpg" alt="" class="wp-image-10998"/></figure>
<!-- /wp:image -->

<!-- wp:html -->
<div class="center"></div>
<!-- /wp:html -->

<!-- wp:paragraph -->
<p>¿Te gusta viajar?; ¿te gusta comer?, y, por último, te gusta la cocina vegetariana? Pues, ¡enhorabuena!, porque te vamos a dar <strong>11 opciones para tu próximo</strong> viaje a las que te vas a tener que rendir.</p>
<!-- /wp:paragraph -->

<!-- wp:paragraph -->
<p>La página web <a href="https://www.happycow.net/" target="_blank">HappyCow.net</a> es el recurso número uno para saber qué <strong>restaurantes y opciones vegetarianas</strong> tienes más próximas a tu localización, estés donde estés. Ahora nos ofrecen un fantástico listado de las 11 ciudades del mundo con más opciones vegetarianas.</p>
<!-- /wp:paragraph -->

<!-- wp:paragraph -->
<p>¡Feliz viaje y que aproveche!</p>
<!-- /wp:paragraph -->

<!-- wp:paragraph -->
<p>&nbsp;<strong>1. Berlín</strong></p>
<!-- /wp:paragraph -->

<!-- wp:paragraph -->
<p>Más de <strong>50 restaurantes veganos</strong> y cientos más con opciones vegetarianas. Todos a poca distancia unos de otros y fácilmente accesibles. Está considerada la ciudad más veg-friendly del mundo.</p>
<!-- /wp:paragraph -->

<!-- wp:image {"id":10999} -->
<figure class="wp-block-image"><img src="/app/uploads/2016/08/brandenburgertor_sn_0.jpg" alt="" class="wp-image-10999"/></figure>
<!-- /wp:image -->

<!-- wp:paragraph -->
<p></p>
<!-- /wp:paragraph -->

<!-- wp:paragraph -->
<p>&nbsp;</p>
<!-- /wp:paragraph -->

<!-- wp:paragraph -->
<p>&nbsp;</p>
<!-- /wp:paragraph -->

<!-- wp:paragraph -->
<p>&nbsp;</p>
<!-- /wp:paragraph -->

<!-- wp:paragraph -->
<p>&nbsp;</p>
<!-- /wp:paragraph -->

<!-- wp:paragraph -->
<p>&nbsp;</p>
<!-- /wp:paragraph -->

<!-- wp:paragraph -->
<p>&nbsp;</p>
<!-- /wp:paragraph -->

<!-- wp:paragraph -->
<p>&nbsp;</p>
<!-- /wp:paragraph -->

<!-- wp:paragraph -->
<p>&nbsp;</p>
<!-- /wp:paragraph -->

<!-- wp:paragraph -->
<p>&nbsp;</p>
<!-- /wp:paragraph -->

<!-- wp:paragraph -->
<p>&nbsp;</p>
<!-- /wp:paragraph -->

<!-- wp:paragraph -->
<p>&nbsp;</p>
<!-- /wp:paragraph -->

<!-- wp:paragraph -->
<p>&nbsp;<strong>2. Nueva York</strong></p>
<!-- /wp:paragraph -->

<!-- wp:paragraph -->
<p>Más de <strong>63 restaurantes veganos</strong> en 2014&nbsp;(seguro que ahora hay aún más) y cientos y cientos de opciones más en casi cualquier restaurante y cafeterías. La ciudad que nunca duerme es un destino soñado para quien quiera disfrutar la más espectacular y deliciosa cocina sin carne.</p>
<!-- /wp:paragraph -->

<!-- wp:image {"id":11000} -->
<figure class="wp-block-image"><img src="/app/uploads/2016/08/new-york.jpg" alt="" class="wp-image-11000"/></figure>
<!-- /wp:image -->

<!-- wp:paragraph -->
<p></p>
<!-- /wp:paragraph -->

<!-- wp:paragraph -->
<p>&nbsp;</p>
<!-- /wp:paragraph -->

<!-- wp:paragraph -->
<p>&nbsp;</p>
<!-- /wp:paragraph -->

<!-- wp:paragraph -->
<p>&nbsp;</p>
<!-- /wp:paragraph -->

<!-- wp:paragraph -->
<p>&nbsp;</p>
<!-- /wp:paragraph -->

<!-- wp:paragraph -->
<p>&nbsp;</p>
<!-- /wp:paragraph -->

<!-- wp:paragraph -->
<p>&nbsp;</p>
<!-- /wp:paragraph -->

<!-- wp:paragraph -->
<p>&nbsp;</p>
<!-- /wp:paragraph -->

<!-- wp:paragraph -->
<p>&nbsp;</p>
<!-- /wp:paragraph -->

<!-- wp:paragraph -->
<p>&nbsp;<strong>3. Portland</strong></p>
<!-- /wp:paragraph -->

<!-- wp:paragraph -->
<p>Es reconocida como una de las ciudades del mundo en las que mejor se vive. Puedes encontrar más de <strong>20 restaurante</strong>s en las que comer opciones vegetarianas en un ambiente agradable. Toda persona a la que le guste la cocina vegetariana disfrutará cada esquina de esta ciudad.</p>
<!-- /wp:paragraph -->

<!-- wp:image {"id":11001} -->
<figure class="wp-block-image"><img src="/app/uploads/2016/08/portland-841428_1280.jpg" alt="" class="wp-image-11001"/></figure>
<!-- /wp:image -->

<!-- wp:paragraph -->
<p></p>
<!-- /wp:paragraph -->

<!-- wp:paragraph -->
<p>&nbsp;</p>
<!-- /wp:paragraph -->

<!-- wp:paragraph -->
<p>&nbsp;</p>
<!-- /wp:paragraph -->

<!-- wp:paragraph -->
<p>&nbsp;</p>
<!-- /wp:paragraph -->

<!-- wp:paragraph -->
<p>&nbsp;</p>
<!-- /wp:paragraph -->

<!-- wp:paragraph -->
<p>&nbsp;</p>
<!-- /wp:paragraph -->

<!-- wp:paragraph -->
<p>&nbsp;</p>
<!-- /wp:paragraph -->

<!-- wp:paragraph -->
<p>&nbsp;</p>
<!-- /wp:paragraph -->

<!-- wp:paragraph -->
<p>&nbsp;</p>
<!-- /wp:paragraph -->

<!-- wp:paragraph -->
<p>&nbsp;</p>
<!-- /wp:paragraph -->

<!-- wp:paragraph -->
<p><br>
&nbsp;<strong>4. San Francisco</strong></p>
<!-- /wp:paragraph -->

<!-- wp:paragraph -->
<p>Comer opciones vegetarianas es fácil en una de las ciudades más icónicas del mundo. <strong>Cientos de cafeterías, restaurantes, tiendas de alimentación </strong>y supermercados con infinidad de opciones para cualquier viajero con buen paladar.</p>
<!-- /wp:paragraph -->

<!-- wp:image {"id":11002} -->
<figure class="wp-block-image"><img src="/app/uploads/2016/08/golden-gate-bridge-1081782_1280.jpg" alt="" class="wp-image-11002"/></figure>
<!-- /wp:image -->

<!-- wp:paragraph -->
<p></p>
<!-- /wp:paragraph -->

<!-- wp:paragraph -->
<p>&nbsp;</p>
<!-- /wp:paragraph -->

<!-- wp:paragraph -->
<p>&nbsp;</p>
<!-- /wp:paragraph -->

<!-- wp:paragraph -->
<p>&nbsp;</p>
<!-- /wp:paragraph -->

<!-- wp:paragraph -->
<p>&nbsp;</p>
<!-- /wp:paragraph -->

<!-- wp:paragraph -->
<p>&nbsp;</p>
<!-- /wp:paragraph -->

<!-- wp:paragraph -->
<p>&nbsp;</p>
<!-- /wp:paragraph -->

<!-- wp:paragraph -->
<p>&nbsp;</p>
<!-- /wp:paragraph -->

<!-- wp:paragraph -->
<p>&nbsp;</p>
<!-- /wp:paragraph -->

<!-- wp:paragraph -->
<p>&nbsp;</p>
<!-- /wp:paragraph -->

<!-- wp:paragraph -->
<p><br>
&nbsp;<strong>5. Londres</strong></p>
<!-- /wp:paragraph -->

<!-- wp:paragraph -->
<p>La ciudad en la que los restaurantes vegetarianos o con opciones vegetarianas <strong>no paran de aumentar</strong>. A lo largo de cada barrio de esta ciudad encontrarás opciones listadas en HappyCow. Opciones para todos los gustos y todos los precios.</p>
<!-- /wp:paragraph -->

<!-- wp:image {"id":11003} -->
<figure class="wp-block-image"><img src="/app/uploads/2016/08/london-441853_1280.jpg" alt="" class="wp-image-11003"/></figure>
<!-- /wp:image -->

<!-- wp:paragraph -->
<p></p>
<!-- /wp:paragraph -->

<!-- wp:paragraph -->
<p>&nbsp;</p>
<!-- /wp:paragraph -->

<!-- wp:paragraph -->
<p>&nbsp;</p>
<!-- /wp:paragraph -->

<!-- wp:paragraph -->
<p>&nbsp;</p>
<!-- /wp:paragraph -->

<!-- wp:paragraph -->
<p>&nbsp;</p>
<!-- /wp:paragraph -->

<!-- wp:paragraph -->
<p>&nbsp;</p>
<!-- /wp:paragraph -->

<!-- wp:paragraph -->
<p>&nbsp;</p>
<!-- /wp:paragraph -->

<!-- wp:paragraph -->
<p>&nbsp;</p>
<!-- /wp:paragraph -->

<!-- wp:paragraph -->
<p>&nbsp;</p>
<!-- /wp:paragraph -->

<!-- wp:paragraph -->
<p>&nbsp;<strong>6. Chiang Mai</strong></p>
<!-- /wp:paragraph -->

<!-- wp:paragraph -->
<p>Tailandia y las opciones vegetales van de la mano; en la capital del norte del país <strong>las opciones vegetarianas al delicioso estilo tailandés abundan</strong>. Además de los restaurantes podrás encontrar mercados llenos de opciones para ti.</p>
<!-- /wp:paragraph -->

<!-- wp:image {"id":11004} -->
<figure class="wp-block-image"><img src="/app/uploads/2016/08/measure-806525_1280.jpg" alt="" class="wp-image-11004"/></figure>
<!-- /wp:image -->

<!-- wp:paragraph -->
<p></p>
<!-- /wp:paragraph -->

<!-- wp:paragraph -->
<p>&nbsp;</p>
<!-- /wp:paragraph -->

<!-- wp:paragraph -->
<p>&nbsp;</p>
<!-- /wp:paragraph -->

<!-- wp:paragraph -->
<p>&nbsp;</p>
<!-- /wp:paragraph -->

<!-- wp:paragraph -->
<p>&nbsp;</p>
<!-- /wp:paragraph -->

<!-- wp:paragraph -->
<p>&nbsp;</p>
<!-- /wp:paragraph -->

<!-- wp:paragraph -->
<p>&nbsp;</p>
<!-- /wp:paragraph -->

<!-- wp:paragraph -->
<p>&nbsp;</p>
<!-- /wp:paragraph -->

<!-- wp:paragraph -->
<p>&nbsp;</p>
<!-- /wp:paragraph -->

<!-- wp:paragraph -->
<p>&nbsp;</p>
<!-- /wp:paragraph -->

<!-- wp:paragraph -->
<p>&nbsp;<strong>7. Los Ángeles</strong></p>
<!-- /wp:paragraph -->

<!-- wp:paragraph -->
<p>Más de <strong>500 lugares con opciones vegetarianas</strong> y creciendo. Cualquier establecimiento tiene al menos una opción vegana para ti. La ciudad que se extiende hasta el infinito, tal vez demasiado para algunas personas, pero, ¡hambre no vas a pasar!</p>
<!-- /wp:paragraph -->

<!-- wp:image {"id":11005} -->
<figure class="wp-block-image"><img src="/app/uploads/2016/08/skyline-los-angeles-559277_1280.jpg" alt="" class="wp-image-11005"/></figure>
<!-- /wp:image -->

<!-- wp:paragraph -->
<p></p>
<!-- /wp:paragraph -->

<!-- wp:paragraph -->
<p>&nbsp;</p>
<!-- /wp:paragraph -->

<!-- wp:paragraph -->
<p>&nbsp;</p>
<!-- /wp:paragraph -->

<!-- wp:paragraph -->
<p>&nbsp;</p>
<!-- /wp:paragraph -->

<!-- wp:paragraph -->
<p>&nbsp;</p>
<!-- /wp:paragraph -->

<!-- wp:paragraph -->
<p>&nbsp;</p>
<!-- /wp:paragraph -->

<!-- wp:paragraph -->
<p>&nbsp;</p>
<!-- /wp:paragraph -->

<!-- wp:paragraph -->
<p>&nbsp;</p>
<!-- /wp:paragraph -->

<!-- wp:paragraph -->
<p>&nbsp;</p>
<!-- /wp:paragraph -->

<!-- wp:paragraph -->
<p>&nbsp;<strong>8. Singapur</strong></p>
<!-- /wp:paragraph -->

<!-- wp:paragraph -->
<p>Más de <strong>100 establecimientos vegetarianos </strong>y veganos listados en HappyCow. Cocina asiática en su versión más deliciosamente vegetal. Si vas a Asia no te pierdas lo que tiene que ofrecerte.</p>
<!-- /wp:paragraph -->

<!-- wp:image {"id":11006} -->
<figure class="wp-block-image"><img src="/app/uploads/2016/08/singapore-river-1490396_1280.jpg" alt="" class="wp-image-11006"/></figure>
<!-- /wp:image -->

<!-- wp:paragraph -->
<p></p>
<!-- /wp:paragraph -->

<!-- wp:paragraph -->
<p>&nbsp;</p>
<!-- /wp:paragraph -->

<!-- wp:paragraph -->
<p>&nbsp;</p>
<!-- /wp:paragraph -->

<!-- wp:paragraph -->
<p>&nbsp;</p>
<!-- /wp:paragraph -->

<!-- wp:paragraph -->
<p>&nbsp;</p>
<!-- /wp:paragraph -->

<!-- wp:paragraph -->
<p>&nbsp;</p>
<!-- /wp:paragraph -->

<!-- wp:paragraph -->
<p>&nbsp;</p>
<!-- /wp:paragraph -->

<!-- wp:paragraph -->
<p>&nbsp;</p>
<!-- /wp:paragraph -->

<!-- wp:paragraph -->
<p>&nbsp;<strong>9. Taipei</strong></p>
<!-- /wp:paragraph -->

<!-- wp:paragraph -->
<p>En la ciudad taiwanesa abundan los restaurantes estilo buffet con <strong>más de 100 opciones vegetarianas</strong>. Comida deliciosa a precios económicos. Comer fácil, sabroso y barato; suena bien, ¿eh?</p>
<!-- /wp:paragraph -->

<!-- wp:image {"id":11007} -->
<figure class="wp-block-image"><img src="/app/uploads/2016/08/one-hundred-and-one-building-1531886_1280.jpg" alt="" class="wp-image-11007"/></figure>
<!-- /wp:image -->

<!-- wp:paragraph -->
<p></p>
<!-- /wp:paragraph -->

<!-- wp:paragraph -->
<p>&nbsp;</p>
<!-- /wp:paragraph -->

<!-- wp:paragraph -->
<p>&nbsp;</p>
<!-- /wp:paragraph -->

<!-- wp:paragraph -->
<p>&nbsp;</p>
<!-- /wp:paragraph -->

<!-- wp:paragraph -->
<p>&nbsp;</p>
<!-- /wp:paragraph -->

<!-- wp:paragraph -->
<p>&nbsp;</p>
<!-- /wp:paragraph -->

<!-- wp:paragraph -->
<p>&nbsp;</p>
<!-- /wp:paragraph -->

<!-- wp:paragraph -->
<p>&nbsp;</p>
<!-- /wp:paragraph -->

<!-- wp:paragraph -->
<p>&nbsp;</p>
<!-- /wp:paragraph -->

<!-- wp:paragraph -->
<p>&nbsp;<strong>10. Toronto</strong></p>
<!-- /wp:paragraph -->

<!-- wp:paragraph -->
<p>Disfruta de <strong>casi cualquier cocina del mundo</strong> en la ciudad canadiense. Opciones vegetarianas internacionales que además son económicas. Además, sus mercados con comida ecológica te cautivarán.</p>
<!-- /wp:paragraph -->

<!-- wp:image {"id":11008} -->
<figure class="wp-block-image"><img src="/app/uploads/2016/08/toronto-1298016_1280.jpg" alt="" class="wp-image-11008"/></figure>
<!-- /wp:image -->

<!-- wp:paragraph -->
<p></p>
<!-- /wp:paragraph -->

<!-- wp:paragraph -->
<p>&nbsp;</p>
<!-- /wp:paragraph -->

<!-- wp:paragraph -->
<p>&nbsp;</p>
<!-- /wp:paragraph -->

<!-- wp:paragraph -->
<p>&nbsp;</p>
<!-- /wp:paragraph -->

<!-- wp:paragraph -->
<p>&nbsp;</p>
<!-- /wp:paragraph -->

<!-- wp:paragraph -->
<p>&nbsp;</p>
<!-- /wp:paragraph -->

<!-- wp:paragraph -->
<p>&nbsp;</p>
<!-- /wp:paragraph -->

<!-- wp:paragraph -->
<p>&nbsp;</p>
<!-- /wp:paragraph -->

<!-- wp:paragraph -->
<p>&nbsp;</p>
<!-- /wp:paragraph -->

<!-- wp:paragraph -->
<p>&nbsp;<strong>11. Varsovia</strong></p>
<!-- /wp:paragraph -->

<!-- wp:paragraph -->
<p>Surgiendo con fuerza como una de las ciudades más veg-friendly del mundo, la capital polaca cuenta con <strong>más de 30 restaurantes veganos</strong> todos muy cerca entre sí. Puedes caminar de uno a otro en menos de diez minutos.</p>
<!-- /wp:paragraph -->

<!-- wp:image {"id":11009} -->
<figure class="wp-block-image"><img src="/app/uploads/2016/08/warsaw-1017468_1280.jpg" alt="" class="wp-image-11009"/></figure>
<!-- /wp:image -->

<!-- wp:paragraph -->
<p></p>
<!-- /wp:paragraph -->

<!-- wp:paragraph -->
<p>&nbsp;</p>
<!-- /wp:paragraph -->

<!-- wp:paragraph -->
<p>&nbsp;</p>
<!-- /wp:paragraph -->

<!-- wp:paragraph -->
<p>&nbsp;</p>
<!-- /wp:paragraph -->

<!-- wp:paragraph -->
<p>&nbsp;</p>
<!-- /wp:paragraph -->

<!-- wp:paragraph -->
<p>&nbsp;</p>
<!-- /wp:paragraph -->

<!-- wp:paragraph -->
<p>&nbsp;</p>
<!-- /wp:paragraph -->

<!-- wp:paragraph -->
<p>&nbsp;</p>
<!-- /wp:paragraph -->

<!-- wp:paragraph -->
<p>&nbsp;</p>
<!-- /wp:paragraph -->

<!-- wp:paragraph -->
<p>&nbsp;</p>
<!-- /wp:paragraph -->

<!-- wp:paragraph -->
<p><strong>Si quieres unirte a las personas que han decidido marcar la diferencia a través de su alimentación, por favor considera consumir alternativas vegetales a la carne. Tienes toda la información y recetas que necesitas en las fantásticas websites <a href="https://www.gastronomiavegana.org/" target="_blank">Gastronomía Vegana</a> y <a href="https://danzadefogones.com/" target="_blank">Danza de Fogones</a></strong>.</p>
<!-- /wp:paragraph -->