{
  "newsletter_form_title": "27",
  "newsletter_hero_background_image": "4",
  "content_image_text_media_order": "23",
  "content_hero_image_only_button_text": "10",
  "content_hero_box_background_image": "12",
  "content_gallery_flickr_title": "21",
  "modular_ae_never_cache_twig": "1",
  "content_gallery_facebookenable": "1",
  "modular_ae_publish_date": "2",
  "action_links_order_by": "2",
  "newsletter_image_progress_bar_enabled": "6",
  "content_video_button_target": "2",
  "content_hero_box_content_width": "3",
  "content_logos_styling_arrow": "47",
  "content_text_In": "1",
  "modular.md:_musiceventenabled": "2",
  "content_logos_published": "8",
  "content_gallery_flickr_never_cache_twig": "1",
  "petition_hero_leadin": "3",
  "petition_image_progressbar_offset": "1",
  "content_hero_box_quote": "1",
  "content_citation_published": "17",
  "content_gallery_color_scheme": "106",
  "newsletter_hero_info_modal_text": "2",
  "content_citation_citation": "1",
  "content_hero_box_published": "3",
  "newsletter_video_publish_date": "1",
  "action_links_body_classes": "1",
  "content_logos_media_order": "21",
  "content_citation_hero_title": "70",
  "petition_image_no_autoplay": "1",
  "content_video_anchor": "12",
  "modular_ae_metadata": "5",
  "donation_video_media_order": "1",
  "content_citation_media_order": "5",
  "content_video_body_classes": "2",
  "default_title": "3",
  "newsletter_video_progressbar_label_goal": "2",
  "header_button_target": "2",
  "content_image_text_order_by": "1",
  "default_visible": "1",
  "content_text_button_text": "1",
  "content_hero_image": "7",
  "content_text_hero_color_scheme": "5",
  "content_hero_image_only_youtube_id": "1",
  "petition_image_styling_arrow": "35",
  "content_video_media_order": "1",
  "petition_hero_progressbar_label": "1",
  "petition_hero_modal_success_cta_link2": "1",
  "content_gallery_styling_arrow": "148",
  "newsletter_video_progressbar_offset": "5",
  "petition_image_modal_success_header1": "32",
  "petition_image_modal_success_header2": "32",
  "content_two_columns_citations": "1",
  "content_icons_styling_arrow": "4",
  "petition_image_modal_success_header3": "3",
  "content_image_text_title": "221",
  "modular_ae_theme_color": "1",
  "petition_video_youtube_id": "93",
  "content_gallery_api_key": "1",
  "modular_ae_share_message": "150",
  "content_video_youtube_id": "86",
  "action_vote_styling_arrow": "10",
  "content_teaser_title": "12",
  "modular_goodie_filename": "1",
  "action_share_order_manual": "1",
  "newsletter_hero_modal_success_text1": "6",
  "newsletter_hero_modal_success_text2": "3",
  "petition_video_remove_this_step1": "1",
  "petition_video_remove_this_step2": "1",
  "petition_video_remove_this_step3": "1",
  "petition_form_everyaction_anchor": "1",
  "content_gallery_url": "1",
  "modular_ae_published": "156",
  "content_hero_box_maintain_image_ratio": "1",
  "content_hero_vimeo_id": "2",
  "content_fullscreen_hero_image_background_portrait": "10",
  "petition_video_published": "21",
  "content_gallery_subtitle": "1",
  "petition_form_everyaction_is_advocator": "12",
  "donation_form_funraise_published": "9",
  "content_investigation_preview_gallery_images": "5",
  "content_hero_box_alignment": "1",
  "modular_title": "2",
  "content_citation_hero_layout": "1",
  "donation_form_asperato_asperato_url": "4",
  "action_vote_voting_enabled": "10",
  "content_gallery_title": "143",
  "donation_image_image": "4",
  "content_text_vimeo_id": "4",
  "content_logos_color_scheme": "38",
  "content_logos_button_target": "1",
  "modular_ae_process": "1",
  "petition_image_published": "7",
  "action_share_body_classes": "1",
  "content_investigation_preview_youtube_id": "6",
  "content_citation_hero_preserve_image_ratio": "1",
  "petition_video_text": "5",
  "newsletter_image_modal_success_cta_as_closer2": "6",
  "content_text_video_webm": "1",
  "newsletter_image_modal_success_cta_as_closer3": "1",
  "content_logos_button": "1",
  "modular_ae_animal-equality-seo": "210",
  "content_text_no_autoplay": "3",
  "content_gallery_flickr_photoset": "21",
  "content_citation_hero_alignment": "36",
  "petition_video_progressbar_label": "1",
  "petition_image_youtube_id": "1",
  "content_image_text_gallery_images": "1",
  "donation_video_color_scheme": "1",
  "newsletter_video_modal_success_cta_blank2": "14",
  "content_image_text_styling_arrow": "237",
  "content_thermometer_current": "1",
  "content_hero_maintain_image_ratio": "60",
  "content_citation_color_scheme": "35",
  "modular_season": "2",
  "donation_hero_styling_arrow": "17",
  "content_hero_video_ogv": "2",
  "content_gallery_button_target": "1",
  "content_hero_image_only_text": "11",
  "content_hero_box_button_text": "3",
  "content_gallery_photoset": "1",
  "quiz_animal-equality-seo": "2",
  "petition_image_media_order": "8",
  "action_links_published": "14",
  "petition_video_content_below_media": "1",
  "donation_video_youtube_id": "2",
  "newsletter_image_modal_success_cta_link2": "1",
  "newsletter_video_modal_success_cta_link2": "2",
  "content_hero_video_mp4": "2",
  "content_two_columns_highlighted": "4",
  "content_fullscreen_hero_media_order": "26",
  "newsletter_video_modal_success_cta_as_closer2": "12",
  "content_hero_image_only_image_portrait": "27",
  "content_gallery_flickr_published": "3",
  "content_citation_hero_published": "11",
  "petition_image_modal_success_cta_link2": "22",
  "newsletter_hero_modal_success_header1": "5",
  "petition_image_modal_success_cta_link3": "4",
  "newsletter_hero_modal_success_header2": "5",
  "content_hero_publish_date": "1",
  "action_msender_bcc": "11",
  "content_text_image_portrait": "1",
  "modular_ae_visible": "11",
  "content_gallery_body_classes": "2",
  "petition_hero_anchor": "1",
  "action_vote_voting_id": "4",
  "newsletter_image_modal_success_cta_label2": "6",
  "content_text_content_position": "1",
  "content_hero_title": "116",
  "content_image_text_content_width": "5",
  "content_gallery_flickr_text": "1",
  "content_hero_image_only_subtitle": "1",
  "newsletter_image_no_autoplay": "2",
  "donation_hero_content_width": "17",
  "content_hero_image_alignment": "1",
  "newsletter_image_leadin": "6",
  "content_thermometer_goal": "1",
  "newsletter_image_remove_this_step1": "1",
  "newsletter_image_remove_this_step2": "1",
  "petition_form_everyaction_styling_arrow": "1",
  "newsletter_image_remove_this_step3": "1",
  "petition_video_placeholder_image": "3",
  "content_investigation_preview_gallery_title": "6",
  "content_gallery_voting_id": "1",
  "petition_image_extra_cta_link": "3",
  "content_gallery_content_width": "1",
  "content_fullscreen_hero_video_ogv": "28",
  "content_hero_image_only_media_order": "6",
  "petition_image_progress_bar_ressource_url": "1",
  "petition_video_styling_arrow": "96",
  "content_two_columns_publish_date": "2",
  "modular_month": "1",
  "content_hero_box_width": "12",
  "modular_ae_pre_footer_text": "16",
  "msender_to": "1",
  "action_links_animal-equality-seo": "2",
  "citation_citations": "1",
  "newsletter_hero_modal_success_cta_blank2": "10",
  "default_share_message": "2",
  "modular.md:_twittercardoptions": "2",
  "action_vote_voting_show_votes": "8",
  "petition_video_success_modal_hide_step_one": "4",
  "content_fullscreen_hero_video_mp4": "29",
  "petition_hero_modal_success_cta_blank2": "5",
  "petition_form_everyaction_title": "18",
  "newsletter_image_progressbar_label_goal": "5",
  "become_active_items": "1",
  "content_image_text_button_target": "23",
  "newsletter_hero_progress_bar_enabled": "3",
  "content_gallery_flickr_alignment": "1",
  "petition_image_modal_success_share_items": "32",
  "donation_image_title": "3",
  "content_citation_author": "1",
  "newsletter_form_everyaction_published": "2",
  "donation_form_funraise_funraise_id": "9",
  "petition_image_text": "1",
  "modular.md:_restaurant": "2",
  "content_citation_order_manual": "1",
  "content_two_columns_published": "12",
  "content_text_background_image": "1",
  "content_text_media_order": "7",
  "content_logos_text": "1",
  "content_teaser_published": "5",
  "action_msender_subject": "32",
  "modular_ae_theme": "1",
  "petition_video_modal_success_back": "1",
  "content_text_content_right": "10",
  "newsletter_image_modal_success_share_items": "1",
  "newsletter_image_progress_bar_url": "6",
  "content_gallery_twittercardoptions": "1",
  "action_msender_newsletter_text": "2",
  "content_video_alignment": "2",
  "donation_form_asperato_title": "4",
  "content_investigation_preview_published": "4",
  "petition_image_donation_button_label": "3",
  "petition_form_everyaction_media_order": "1",
  "petition_form_process": "3",
  "petition_video_modal_success_cta_link2": "48",
  "content_hero_image_only_color_scheme": "10",
  "petition_video_modal_success_cta_link3": "1",
  "quiz_intro": "2",
  "content_text_items": "2",
  "petition_form_info_modal_link_label": "1",
  "petition_form_cache_enable": "3",
  "action_msender_cc": "1",
  "petition_video_info_modal_text": "91",
  "donation_form_everyaction_title": "4",
  "content_text_text": "4",
  "petition_video_extra_cta_link": "1",
  "donation_hero_published": "5",
  "newsletter_image_image": "4",
  "modular_ae_menu": "17",
  "action_share_published": "27",
  "content_citation_styling_arrow": "55",
  "newsletter_image_info_modal_text": "5",
  "content_fullscreen_hero_video_webm": "28",
  "content_citation_body_classes": "3",
  "quiz_donation": "2",
  "content_citation_author_profession": "2",
  "petition_video_progressbar_offset": "4",
  "modular_ae_subtitle": "1",
  "content_thermometer_title": "1",
  "petition_form_published": "112",
  "donation_form_asperato_height_xs": "4",
  "content_logos_image_alignment": "2",
  "content_hero_image_only_maintain_image_ratio": "10",
  "newsletter_form_published": "27",
  "content_text_hero_title": "5",
  "petition_video_modal_success_cta_label2": "48",
  "content_video_published": "44",
  "petition_video_modal_success_cta_label3": "1",
  "petition_form_everyaction_id": "21",
  "quiz_media_order": "2",
  "content_two_columns_alignment": "8",
  "content_gallery_voting_enabled": "1",
  "petition_hero_modal_success_text1": "1",
  "newsletter_form_animal-equality-seo": "2",
  "petition_video_progressbar_goals": "10",
  "petition_hero_modal_success_text2": "1",
  "petition_video_image_background_portrait": "1",
  "petition_video_info_modal_link_label": "8",
  "petition_video_image": "1",
  "modular.md:_restaurantenabled": "2",
  "petition_video_donation_data_profile": "7",
  "newsletter_image_title": "6",
  "donation_form_everyaction_styling_arrow": "4",
  "newsletter_image_youtube_id": "1",
  "newsletter_hero_maintain_image_ratio": "6",
  "content_hero_image_only_image_landscape": "44",
  "action_vote_items": "9",
  "content_citation_hero_image_portrait": "1",
  "content_image_text_button_label": "17",
  "newsletter_image_published": "4",
  "modular_ae_gtm_id": "3",
  "modular_ae_donate_button_to_section": "219",
  "action_share_styling_arrow": "164",
  "action_share_anchor": "1",
  "content_hero_video_webm": "2",
  "content_text_voting_id": "1",
  "content_citation_hero_button_text": "2",
  "petition_form_visible": "6",
  "donation_image_published": "3",
  "content_fullscreen_hero_color_scheme": "12",
  "content_citation_hero_button": "1",
  "content_gallery_flickr_order_by": "1",
  "calendar_days": "1",
  "newsletter_image_progressbar_result_path": "2",
  "petition_video_title": "88",
  "newsletter_video_progressbar_result_path": "5",
  "newsletter_hero_button_as_close": "2",
  "content_hero_box_media_order": "3",
  "action_share_alignment": "1",
  "citation_author": "1",
  "content_hero_box_author_name": "1",
  "newsletter_video_youtube_id": "14",
  "modul-text_image": "2",
  "content_text_button_label": "87",
  "content_text_image": "4",
  "action_share_order_by": "1",
  "donation_image_styling_arrow": "4",
  "newsletter_image_color_scheme": "3",
  "modul-text_button_url": "2",
  "default_routable": "1",
  "newsletter_image_order_by": "1",
  "default_published": "3",
  "content_hero_image_only_layout": "1",
  "content_gallery_button_text": "1",
  "content_citation_hero_image_alignment": "1",
  "action_share_items": "164",
  "newsletter_hero_modal_success_cta_link2": "1",
  "header_logo": "2",
  "content_citation_hero_quote": "83",
  "petition_image_extra_cta_text": "3",
  "newsletter_hero_modal_success_share_items": "4",
  "content_hero_image_only_order_manual": "1",
  "petition_hero_color_scheme": "2",
  "content_image_text_image_alignment": "237",
  "modular_ae_donate_url": "4",
  "modul-text_title": "2",
  "newsletter_form_everyaction_color_scheme": "2",
  "action_share_publish_date": "1",
  "action_vote_published": "2",
  "action_share_text": "1",
  "content_gallery_flickr_button_label": "1",
  "box-text_media_order": "2",
  "content_hero_image_only_published": "8",
  "content_countdown_unpublish_date": "2",
  "petition_image_leadin": "35",
  "content_logos_columns_desktop": "45",
  "content_gallery_text": "1",
  "newsletter_image_media_order": "2",
  "content_gallery_video_webm": "1",
  "newsletter_image_styling_arrow": "6",
  "msender_messengers": "1",
  "content_gallery_published": "31",
  "petition_video_modal_success_header1": "77",
  "donation_video_published": "1",
  "petition_video_modal_success_header2": "76",
  "petition_hero_title": "5",
  "petition_video_modal_success_header3": "1",
  "modular_ae_date": "1",
  "content_hero_preserve_image_ratio": "1",
  "newsletter_hero_leadin": "2",
  "newsletter_hero_form": "9",
  "donation_form_everyaction_anchor": "1",
  "content_two_columns_content_right": "83",
  "action_links_items": "64",
  "content_hero_button_text": "72",
  "donation_video_layout": "1",
  "petition_video_vimeo_id": "21",
  "quiz_body_classes": "1",
  "newsletter_video_vimeo_id": "1",
  "newsletter_form_styling_arrow": "27",
  "action_share_button_target": "1",
  "content_gallery_preserve_image_ratio": "2",
  "petition_image_color_scheme": "27",
  "content_hero_image_only_body_classes": "1",
  "default_gtm_id": "2",
  "quiz_questions": "2",
  "newsletter_image_progressbar_goals": "5",
  "content_two_columns_title": "76",
  "content_text_image_landscape": "1",
  "become_active_title": "1",
  "petition_image_show_donation_first": "13",
  "modular.md:_orga": "2",
  "petition_form_title": "110",
  "content_gallery_publish_date": "1",
  "calendar_title": "2",
  "content_hero_content_position": "119",
  "content_video_vimeo_id": "19",
  "content_image_text_color_scheme": "136",
  "petition_video_extra_cta_text": "1",
  "donation_hero_form": "9",
  "default_fullwidth_banner": "2",
  "content_citation_text": "1",
  "petition_video_progressbar_result_path": "1",
  "donation_video_anchor": "1",
  "newsletter_image_order_manual": "1",
  "action_msender_newsletter_endpoint": "2",
  "newsletter_image_donation_data_profile": "1",
  "content_citation_title": "39",
  "content_text_voting_enabled": "1",
  "petition_form_body_classes": "2",
  "action_msender_anchor": "1",
  "petition_image_hide_donation_field": "13",
  "default_donate_button_to_section": "2",
  "petition_video_video_ogv": "1",
  "newsletter_image_modal_success_cta_blank2": "6",
  "newsletter_image_modal_success_cta_blank3": "1",
  "modular.md:_orgaenabled": "2",
  "content_countdown_title": "3",
  "petition_video_show_donation_first": "7",
  "modular.md:_title": "2",
  "modular_media_order": "1",
  "content_hero_image_only_styling_arrow": "46",
  "petition_form_metadata": "1",
  "modular_ae_donate_label": "4",
  "content_text_color_scheme": "156",
  "petition_image_modal_success_text1": "34",
  "petition_image_modal_success_text2": "34",
  "donation_hero_text_below_form": "2",
  "default_redirect": "1",
  "petition_image_modal_success_text3": "5",
  "content_text_styling_arrow": "258",
  "petition_video_video_mp4": "1",
  "content_image_text_columns_desktop": "1",
  "content_text_title": "216",
  "donation_hero_anchor": "1",
  "content_hero_image_only_image": "1",
  "action_links_styling_arrow": "63",
  "petition_image_vimeo_id": "1",
  "content_text_layout": "6",
  "msender_subject": "1",
  "content_hero_box_button_label": "1",
  "content_citation_hero_color_scheme": "19",
  "newsletter_image_vimeo_id": "1",
  "petition_video_hide_donation_field": "7",
  "donation_form_asperato_color_scheme": "2",
  "content_text_alignment": "205",
  "default_animal-equality-seo": "6",
  "content_video_placeholder_image": "5",
  "content_image_text_maintain_image_ratio": "1",
  "citation_styling_arrow": "1",
  "newsletter_image_body_classes": "1",
  "content_image_text_layout": "237",
  "content_hero_box_button": "10",
  "content_investigation_preview_color_scheme": "3",
  "petition_form_everyaction_content_conditional": "1",
  "donation_video_styling_arrow": "2",
  "default_pre_footer_text": "2",
  "content_fullscreen_hero_image_content": "1",
  "content_hero_background_image": "114",
  "petition_video_modal_success_text1": "93",
  "petition_video_modal_success_text2": "92",
  "content_gallery_flickr_color_scheme": "7",
  "petition_video_modal_success_text3": "1",
  "calendar_text": "1",
  "content_hero_image_only_content_width": "10",
  "donation_video_image": "1",
  "content_hero_image_only_image_background": "1",
  "action_msender_to": "32",
  "content_hero_subtitle": "2",
  "modular_ae_routable": "2",
  "header_image": "2",
  "content_citation_hero_media_order": "4",
  "action_vote_title": "10",
  "content_citation_hero_author_name": "83",
  "content_hero_layout": "1",
  "content_icons_published": "1",
  "content_text_anchor": "10",
  "content_icons_icons": "4",
  "content_text_published": "83",
  "modular_ae_share_subject": "135",
  "content_text_subtitle": "1",
  "content_citation_hero_width": "58",
  "content_hero_box_author_profession": "1",
  "content_countdown_styling_arrow": "4",
  "content_image_text_anchor": "1",
  "petition_video_no_autoplay": "77",
  "newsletter_image_modal_success_header1": "2",
  "donation_video_preserve_image_ratio": "1",
  "content_hero_image_only_video_webm": "1",
  "content_hero_box_text": "12",
  "content_image_text_order_manual": "1",
  "newsletter_image_modal_success_header2": "6",
  "modular_ae_color_scheme": "92",
  "petition_image_remove_this_step1": "7",
  "newsletter_video_progress_bar_url": "12",
  "content_hero_text": "109",
  "petition_image_remove_this_step2": "7",
  "content_citation_publish_date": "1",
  "petition_image_remove_this_step3": "7",
  "petition_image_anchor": "1",
  "newsletter_video_styling_arrow": "14",
  "modular_ae_styling_arrow": "219",
  "content_hero_image_only_order_by": "1",
  "content_gallery_media_order": "59",
  "msender_title": "1",
  "content_fullscreen_hero_title": "36",
  "header_title": "2",
  "quiz_title": "2",
  "newsletter_form_color_scheme": "1",
  "content_investigation_preview_title": "6",
  "content_hero_image_only_button_target": "10",
  "newsletter_hero_anchor": "1",
  "content_hero_image_only_preserve_image_ratio": "1",
  "content_teaser_styling_arrow": "12",
  "newsletter_video_progress_bar_enabled": "14",
  "newsletter_video_leadin": "14",
  "modular_theme": "2",
  "petition_image_body_classes": "3",
  "content_text_button_target": "82",
  "newsletter_video_color_scheme": "12",
  "content_image_text_width": "2",
  "action_share_title": "164",
  "content_citation_hero_content_position": "2",
  "content_image_text_highlighted": "9",
  "content_hero_anchor": "1",
  "content_text_youtube_id": "4",
  "content_teaser_button_label": "4",
  "content_text_order_manual": "2",
  "content_hero_button_label": "4",
  "header_animal-equality-seo": "2",
  "modular.md:_body_classes": "2",
  "petition_video_modal_success_cta_blank2": "97",
  "petition_video_modal_success_cta_blank3": "7",
  "content_gallery_flickr_tags": "2",
  "newsletter_video_modal_success_share_items": "1",
  "donation_form_asperato_height": "4",
  "content_image_text_body_classes": "10",
  "modul-text_text": "2",
  "newsletter_image_button_as_close": "5",
  "citation_title": "1",
  "content_gallery_vimeo_id": "1",
  "content_two_columns_layout": "1",
  "donation_form_everyaction_id": "4",
  "content_hero_media_order": "26",
  "content_image_text_gallery_link": "1",
  "newsletter_video_info_modal_text": "14",
  "content_image_text_gallery_title": "1",
  "content_hero_fullwidth_banner": "1",
  "petition_video_image_background": "1",
  "content_gallery_flickr_order_manual": "1",
  "content_two_columns_button_label": "13",
  "petition_video_process": "1",
  "content_hero_box_color_scheme": "6",
  "content_hero_image_only_title": "24",
  "action_links_title": "63",
  "msender_body_classes": "1",
  "content_text_content_width": "1",
  "newsletter_hero_color_scheme": "5",
  "content_text_body_classes": "16",
  "petition_image_modal_success_cta_label2": "22",
  "petition_image_modal_success_cta_label3": "4",
  "content_image_text_text": "8",
  "content_two_columns_styling_arrow": "83",
  "petition_video_color_scheme": "67",
  "content_citation_hero_background_image": "81",
  "content_image_text_youtube_id": "1",
  "content_logos_preserve_image_ratio": "1",
  "content_fullscreen_hero_subtitle": "25",
  "content_fullscreen_hero_youtube_id": "10",
  "content_countdown_published": "3",
  "content_citation_hero_body_classes": "1",
  "content_text_maintain_image_ratio": "1",
  "petition_hero_styling_arrow": "5",
  "action_msender_newsletter": "32",
  "content_hero_box_title": "12",
  "action_vote_color_scheme": "3",
  "action_msender_published": "11",
  "content_two_columns_anchor": "1",
  "modular_ae_redirect": "19",
  "donation_video_title": "1",
  "quiz_published": "1",
  "content_teaser_button_target": "4",
  "newsletter_form_everyaction_id": "2",
  "donation_video_button": "1",
  "action_vote_layout": "8",
  "content_fullscreen_hero_animal-equality-seo": "1",
  "content_gallery_layout": "3",
  "modular_published": "1",
  "header_button_label": "2",
  "donation_form_asperato_styling_arrow": "4",
  "content_gallery_flickr_body_classes": "4",
  "petition_video_video_webm": "1",
  "petition_video_media_order": "20",
  "petition_video_progressbar_ressource_url": "1",
  "content_investigation_preview_gallery_link": "6",
  "petition_video_petition_intro": "1",
  "petition_video_modal_success_share_items": "91",
  "content_image_text_alignment": "16",
  "content_text_voting_show_votes": "1",
  "content_investigation_preview_styling_arrow": "6",
  "newsletter_form_form": "28",
  "petition_video_progress_bar_ressource_url": "1",
  "modular_ae_public_url": "1",
  "content_gallery_twitterenable": "1",
  "newsletter_hero_styling_arrow": "10",
  "content_hero_headline": "1",
  "content_hero_youtube_id": "2",
  "petition_video_progressbar_label_goal": "10",
  "content_two_columns_image_alignment": "1",
  "modular.md:_content": "2",
  "content_thermometer_styling_arrow": "1",
  "default_share_subject": "2",
  "donation_hero_content_position": "17",
  "content_citation_quote": "2",
  "content_logos_items": "46",
  "newsletter_hero_published": "3",
  "content_citation_citations": "54",
  "content_hero_width": "1",
  "content_hero_image_only_vimeo_id": "1",
  "newsletter_video_image": "11",
  "newsletter_form_everyaction_styling_arrow": "2",
  "donation_hero_color_scheme": "13",
  "content_text_hero_button_target": "5",
  "modular_ae_body_classes": "116",
  "donation_form_asperato_published": "4",
  "content_gallery_anchor": "3",
  "content_hero_image_only_button": "1",
  "content_teaser_color_scheme": "10",
  "modular_ae_fullwidth_banner": "219",
  "default_styling_arrow": "2",
  "default_content": "2",
  "content_text_hero_styling_arrow": "5",
  "newsletter_form_body_classes": "1",
  "content_image_text_published": "28",
  "content_hero_color_scheme": "68",
  "modular.md:_personenabled": "2",
  "content_hero_image_only_animal-equality-seo": "1",
  "donation_form_funraise_min_amount": "5",
  "content_thermometer_image_desktop": "1",
  "donation_form_everyaction_published": "4",
  "content_video_button_label": "2",
  "petition_video_donation_button_label": "1",
  "petition_hero_modal_success_header1": "1",
  "newsletter_video_body_classes": "2",
  "content_hero_published": "35",
  "petition_hero_modal_success_header2": "1",
  "newsletter_hero_content_width": "10",
  "newsletter_video_progressbar_label": "1",
  "content_two_columns_button_target": "13",
  "citation_citation": "1",
  "donation_form_funraise_styling_arrow": "9",
  "petition_form_everyaction_progress_bar_ressource_url": "7",
  "newsletter_video_title": "13",
  "content_hero_image_only_content_position": "10",
  "modular_ae_title": "219",
  "content_fullscreen_hero_styling_arrow": "37",
  "content_text_button": "6",
  "action_links_color_scheme": "38",
  "content_video_title": "44",
  "content_two_columns_color_scheme": "52",
  "newsletter_image_progressbar_offset": "1",
  "newsletter_image_show_donation_first": "1",
  "content_image_text_button": "48",
  "petition_form_form": "113",
  "modular.md:_articleenabled": "2",
  "content_image_text_button_text": "6",
  "msender_styling_arrow": "1",
  "box-text_text": "2",
  "content_citation_hero_styling_arrow": "83",
  "content_gallery_voting_show_votes": "1",
  "newsletter_hero_progress_bar_url": "3",
  "content_image_text_content_right": "9",
  "petition_image_progressbar_label_goal": "2",
  "newsletter_image_hide_donation_field": "1",
  "calendar_features": "1",
  "content_hero_image_only_video_ogv": "1",
  "content_fullscreen_hero_published": "13",
  "newsletter_hero_youtube_id": "1",
  "modular_content": "2",
  "content_hero_button": "2",
  "newsletter_hero_no_autoplay": "1",
  "newsletter_hero_image": "2",
  "petition_video_leadin": "97",
  "content_image_text_headline": "1",
  "content_gallery_flickr_styling_arrow": "20",
  "content_gallery_video_ogv": "1",
  "content_hero_alignment": "4",
  "content_two_columns_text": "1",
  "newsletter_hero_content_position": "10",
  "petition_video_body_classes": "9",
  "petition_form_everyaction_published": "19",
  "newsletter_image_modal_success_text1": "1",
  "petition_image_progressbar_goals": "1",
  "newsletter_image_modal_success_text2": "1",
  "newsletter_video_placeholder_image": "6",
  "content_citation_hero_author_profession": "83",
  "content_hero_image_only_video_mp4": "1",
  "content_citation_background_image": "2",
  "content_fullscreen_hero_image_background": "24",
  "content_hero_image_only_background_image": "1",
  "action_share_button_label": "1",
  "content_gallery_content_position": "1",
  "content_gallery_video_mp4": "1",
  "newsletter_video_no_autoplay": "14",
  "content_image_text_items": "3",
  "newsletter_video_info_modal_link_label": "1",
  "content_citation_hero_text": "3",
  "newsletter_video_modal_success_cta_label2": "13",
  "donation_hero_media_order": "4",
  "content_citation_hero_content_width": "2",
  "modul-text_button_label": "2",
  "content_icons_title": "4",
  "content_gallery_tags": "1",
  "petition_image_info_modal_link_label": "1",
  "content_text_video_ogv": "1",
  "content_citation_order_by": "1",
  "content_text_highlighted": "10",
  "quiz_content": "1",
  "petition_hero_modal_success_share_items": "1",
  "newsletter_video_modal_success_text1": "2",
  "newsletter_video_modal_success_text2": "2",
  "newsletter_hero_modal_success_cta_as_closer2": "3",
  "donation_hero_maintain_image_ratio": "5",
  "modular.md:_eventenabled": "2",
  "petition_image_modal_success_cta_as_closer2": "22",
  "petition_image_modal_success_cta_as_closer3": "13",
  "donation_form_funraise_thank_you_page": "3",
  "content_hero_image_only_image_alignment": "1",
  "petition_form_everyaction_progress_bar_ressource_field": "7",
  "content_text_video_mp4": "1",
  "content_logos_layout": "2",
  "content_citation_hero_citations": "2",
  "action_links_order_manual": "2",
  "content_text_hero_alignment": "5",
  "modular_ae_content": "219",
  "action_vote_media_order": "9",
  "content_gallery_items": "146",
  "content_video_color_scheme": "53",
  "action_share_unpublish_date": "1",
  "action_links_text": "5",
  "petition_image_image": "33",
  "content_citation_hero_button_target": "2",
  "content_fullscreen_hero_publish_date": "1",
  "content_hero_styling_arrow": "119",
  "donation_hero_background_image": "11",
  "content_citation_hero_image": "3",
  "petition_video_subtitle": "1",
  "content_gallery_youtube_id": "1",
  "action_msender_color_scheme": "21",
  "modular_ae_media_order": "91",
  "msender_enable_mailchimp": "1",
  "content_hero_body_classes": "5",
  "modular.md:_orgaratingenabled": "2",
  "content_gallery_image_alignment": "3",
  "petition_image_progress_bar_ressource_field": "1",
  "content_gallery_background_image": "1",
  "content_gallery_columns_desktop": "1",
  "content_image_text_preserve_image_ratio": "232",
  "petition_video_modal_success_cta_as_closer2": "21",
  "petition_hero_modal_success_cta_as_closer2": "2",
  "calendar_advents": "2",
  "content_gallery_flickr_button_target": "1",
  "petition_video_modal_success_cta_as_closer3": "7",
  "donation_video_no_autoplay": "2",
  "header_media_order": "2",
  "content_text_hero_button_label": "5",
  "content_video_styling_arrow": "100",
  "content_logos_anchor": "1",
  "content_investigation_preview_media_order": "1",
  "content_image_text_content_position": "6",
  "content_text_hero_published": "5",
  "newsletter_hero_modal_success_cta_label2": "3",
  "header_text": "2",
  "content_image_text_image": "236",
  "petition_image_title": "30",
  "donation_video_image_alignment": "1",
  "quiz_subscription_or_results": "2",
  "content_video_no_autoplay": "95",
  "content_countdown_countdown_to": "4",
  "petition_hero_modal_success_cta_label2": "1",
  "content_teaser_image": "12",
  "content_citation_author_name": "2",
  "content_two_columns_body_classes": "2",
  "newsletter_hero_media_order": "1",
  "content_hero_content_width": "119",
  "content_hero_box_content_position": "3",
  "newsletter_video_modal_success_header1": "12",
  "newsletter_video_modal_success_header2": "13",
  "quiz_subscription": "2",
  "content_logos_title": "48",
  "newsletter_video_progressbar_goals": "2",
  "content_gallery_button": "2",
  "content_citation_hero_image_landscape": "1",
  "petition_video_progress_bar_ressource_field": "1",
  "petition_image_info_modal_text": "33",
  "action_msender_title": "32",
  "content_fullscreen_hero_unpublish_date": "1",
  "content_citation_hero_publish_date": "2",
  "content_text_preserve_image_ratio": "6",
  "quiz_form_id": "2",
  "quiz_results": "2",
  "newsletter_hero_title": "9",
  "action_msender_messengers": "32",
  "newsletter_hero_progressbar_label_goal": "1",
  "content_hero_box_button_target": "3",
  "content_countdown_color_scheme": "2",
  "petition_image_donation_data_profile": "13",
  "newsletter_video_media_order": "1",
  "content_thermometer_image_mobile": "1",
  "donation_hero_title": "16",
  "content_text_order_by": "2",
  "petition_image_modal_success_cta_blank2": "35",
  "content_gallery_image": "1",
  "petition_image_modal_success_cta_blank3": "13",
  "action_share_color_scheme": "112",
  "newsletter_video_button_as_close": "11",
  "box-text_title": "2",
  "newsletter_form_everyaction_title": "2",
  "content_hero_box_styling_arrow": "12",
  "quiz_campaign": "2",
  "content_citation_animal-equality-seo": "1",
  "newsletter_hero_progressbar_goals": "1",
  "modular_goodie_url": "1",
  "donation_form_funraise_title": "8",
  "petition_image_modal_success_share_items2": "2",
  "action_msender_styling_arrow": "32",
  "petition_video_anchor": "3",
  "content_logos_button_label": "1",
  "become_active_styling_arrow": "1",
  "content_hero_button_target": "71",
  "content_image_text_background_image": "7",
  "content_text_image_alignment": "7",
  "modular_animal-equality-seo": "2"
}
